<?xml version="1.0" encoding="UTF-8" standalone="no"?>
<!-- Created with Inkscape (http://www.inkscape.org/) -->

<svg
   xmlns:dc="http://purl.org/dc/elements/1.1/"
   xmlns:cc="http://creativecommons.org/ns#"
   xmlns:rdf="http://www.w3.org/1999/02/22-rdf-syntax-ns#"
   xmlns:svg="http://www.w3.org/2000/svg"
   xmlns="http://www.w3.org/2000/svg"
   xmlns:sodipodi="http://sodipodi.sourceforge.net/DTD/sodipodi-0.dtd"
   xmlns:inkscape="http://www.inkscape.org/namespaces/inkscape"
   width="32"
   height="32"
   id="svg2"
   version="1.1"
   inkscape:version="0.48.2 r9819"
   sodipodi:docname="Новый документ 1">
  <defs
     id="defs4">
    <clipPath
       id="clipPath3025"
       clipPathUnits="userSpaceOnUse">
      <path
         id="path3027"
         d="m 0,841.89 595.28,0 L 595.28,0 0,0 0,841.89 z"
         inkscape:connector-curvature="0" />
    </clipPath>
  </defs>
  <sodipodi:namedview
     id="base"
     pagecolor="#ffffff"
     bordercolor="#666666"
     borderopacity="1.0"
     inkscape:pageopacity="0.0"
     inkscape:pageshadow="2"
     inkscape:zoom="5.6"
     inkscape:cx="23.818722"
     inkscape:cy="-13.659297"
     inkscape:document-units="px"
     inkscape:current-layer="layer1"
     showgrid="false"
     inkscape:window-width="1680"
     inkscape:window-height="988"
     inkscape:window-x="-8"
     inkscape:window-y="-8"
     inkscape:window-maximized="1" />
  <metadata
     id="metadata7">
    <rdf:RDF>
      <cc:Work
         rdf:about="">
        <dc:format>image/svg+xml</dc:format>
        <dc:type
           rdf:resource="http://purl.org/dc/dcmitype/StillImage" />
        <dc:title></dc:title>
      </cc:Work>
    </rdf:RDF>
  </metadata>
  <g
     inkscape:label="Layer 1"
     inkscape:groupmode="layer"
     id="layer1"
     transform="translate(0,-1020.3622)">
    <g
       id="g3021"
       transform="matrix(0.49518698,0,0,-0.49518698,-124.82127,1289.1633)">
      <g
         id="g3023"
         clip-path="url(#clipPath3025)">
        <g
           id="g3029"
           transform="translate(280.5151,507.4131)">
          <path
             inkscape:connector-curvature="0"
             d="m 0,0 c 0,0 10.809,-15.75 -7.375,-28.13 -0.652,-0.292 -1.306,-0.098 -0.77,0.94 C -7.607,-26.151 -0.223,-7.959 0,0"
             style="fill:#f6893a;fill-opacity:1;fill-rule:nonzero;stroke:none"
             id="path3031" />
        </g>
        <g
           id="g3033"
           transform="translate(281.8638,508.5059)">
          <path
             inkscape:connector-curvature="0"
             d="m 0,0 c 0,0 -3.953,-19.337 -25.016,-12.972 -0.646,0.33 -0.948,0.987 0.153,1.252 C -23.762,-11.454 -5.821,-5.179 0,0"
             style="fill:#ef4139;fill-opacity:1;fill-rule:nonzero;stroke:none"
             id="path3035" />
        </g>
        <g
           id="g3037"
           transform="translate(280.603,507.3555)">
          <path
             inkscape:connector-curvature="0"
             d="m 0,0 c 0,0 -5.035,-13.022 -19.05,-5.764 -0.414,0.317 -0.55,0.819 0.253,0.857 C -17.993,-4.867 -4.686,-2.854 0,0"
             style="fill:#f38698;fill-opacity:1;fill-rule:nonzero;stroke:none"
             id="path3039" />
        </g>
        <g
           id="g3041"
           transform="translate(281.9263,507.6318)">
          <path
             inkscape:connector-curvature="0"
             d="m 0,0 c 0,0 -19.469,-9.591 -28.633,15.484 -0.166,0.865 0.192,1.619 1.189,0.722 C -26.448,15.313 -8.528,2.101 0,0"
             style="fill:#7ea64c;fill-opacity:1;fill-rule:nonzero;stroke:none"
             id="path3043" />
        </g>
        <g
           id="g3045"
           transform="translate(281.4839,506.7656)">
          <path
             inkscape:connector-curvature="0"
             d="m 0,0 c 0,0 -14.971,0.009 -13.864,18.749 0.134,0.598 0.567,0.963 0.952,0.085 C -12.527,17.956 -4.822,3.995 0,0"
             style="fill:#fcbb33;fill-opacity:1;fill-rule:nonzero;stroke:none"
             id="path3047" />
        </g>
        <g
           id="g3049"
           transform="translate(281.0942,507.0068)">
          <path
             inkscape:connector-curvature="0"
             d="M 0,0 C 0,0 10.551,22.233 34.335,7.396 35.023,6.777 35.197,5.871 33.775,5.92 32.355,5.968 8.63,4.352 0,0"
             style="fill:#37ade2;fill-opacity:1;fill-rule:nonzero;stroke:none"
             id="path3051" />
        </g>
        <g
           id="g3053"
           transform="translate(281.3735,507.1445)">
          <path
             inkscape:connector-curvature="0"
             d="M 0,0 C 0,0 12.899,9.456 22.398,-7.386 22.617,-7.984 22.445,-8.575 21.625,-8.063 20.806,-7.549 6.381,-0.393 0,0"
             style="fill:#7ea64c;fill-opacity:1;fill-rule:nonzero;stroke:none"
             id="path3055" />
        </g>
        <g
           id="g3057"
           transform="translate(280.8726,506.9727)">
          <path
             inkscape:connector-curvature="0"
             d="M 0,0 C 0,0 20.422,1.047 20.084,-24.599 19.94,-25.424 19.37,-25.953 18.79,-24.782 18.211,-23.611 6.827,-5.108 0,0"
             style="fill:#cae093;fill-opacity:1;fill-rule:nonzero;stroke:none"
             id="path3059" />
        </g>
        <g
           id="g3061"
           transform="translate(279.6392,506.7539)">
          <path
             inkscape:connector-curvature="0"
             d="M 0,0 C 0,0 -15.642,16.463 3.686,34.837 4.403,35.315 5.214,35.22 4.765,33.88 4.315,32.54 -1.17,9.476 0,0"
             style="fill:#ef4139;fill-opacity:1;fill-rule:nonzero;stroke:none"
             id="path3063" />
        </g>
        <g
           id="g3065"
           transform="translate(281.0669,506.4131)">
          <path
             inkscape:connector-curvature="0"
             d="m 0,0 c 0,0 -6.784,18.529 14.177,25.663 0.713,0.108 1.308,-0.266 0.527,-1.14 C 13.918,23.649 2.17,7.779 0,0"
             style="fill:#f38698;fill-opacity:1;fill-rule:nonzero;stroke:none"
             id="path3067" />
        </g>
        <g
           id="g3069"
           transform="translate(280.7788,506.7227)">
          <path
             inkscape:connector-curvature="0"
             d="M 0,0 C 0,0 2.359,21.716 26.168,17.173 26.915,16.885 27.313,16.197 26.129,15.778 24.946,15.358 5.87,6.368 0,0"
             style="fill:#317abe;fill-opacity:1;fill-rule:nonzero;stroke:none"
             id="path3071" />
        </g>
        <g
           id="g3073"
           transform="translate(284.8638,529.4883)">
          <path
             inkscape:connector-curvature="0"
             d="M 0,0 C 0,0 -0.843,6.008 5.854,6.622 6.073,6.603 6.227,6.449 5.938,6.244 5.648,6.041 1.141,2.16 0,0"
             style="fill:#ef4139;fill-opacity:1;fill-rule:nonzero;stroke:none"
             id="path3075" />
        </g>
        <g
           id="g3077"
           transform="translate(289.2368,492.5254)">
          <path
             inkscape:connector-curvature="0"
             d="M 0,0 C 0,0 4.823,-3.244 0.888,-9.046 0.73,-9.21 0.521,-9.233 0.564,-8.866 0.607,-8.501 0.793,-2.333 0,0"
             style="fill:#cae093;fill-opacity:1;fill-rule:nonzero;stroke:none"
             id="path3079" />
        </g>
        <g
           id="g3081"
           transform="translate(274.2554,494.9609)">
          <path
             inkscape:connector-curvature="0"
             d="m 0,0 c 0,0 1.278,-5.92 -5.353,-7.086 -0.22,0 -0.384,0.141 -0.111,0.369 C -5.191,-6.49 -0.98,-2.248 0,0"
             style="fill:#f6893a;fill-opacity:1;fill-rule:nonzero;stroke:none"
             id="path3083" />
        </g>
        <g
           id="g3085"
           transform="translate(280.9702,505.6055)">
          <path
             inkscape:connector-curvature="0"
             d="M 0,0 C 0,0 -14.766,11.897 -0.541,29.51 0.01,29.995 0.694,30.01 0.457,28.84 0.223,27.667 -1.958,7.771 0,0"
             style="fill:#f6893a;fill-opacity:1;fill-rule:nonzero;stroke:none"
             id="path3087" />
        </g>
        <g
           id="g3089"
           transform="translate(280.7593,506.8486)">
          <path
             inkscape:connector-curvature="0"
             d="M 0,0 C 0,0 11.757,-5.479 4.843,-19.797 4.546,-20.218 4.085,-20.345 4.067,-19.516 4.048,-18.687 2.498,-4.9 0,0"
             style="fill:#fcbb33;fill-opacity:1;fill-rule:nonzero;stroke:none"
             id="path3091" />
        </g>
      </g>
    </g>
  </g>
</svg>
